Modular design and software development best practices in R
…
    return(arrange(pairs, -Passengers))
}

Running our function

Running the code on the previous slide defines the function, but does not run it

We have to call the function to run it

busiest_routes()

# A tibble: 4,872 × 4
# Groups:   airport1 [339]
   airport1 airport2 Passengers distance_km
   <chr>    <chr>         <dbl>       <dbl>
 1 JFK      LAX            6764       3982.
 2 HNL      OGG            6163        161.
 3 LGA      ORD            6125       1179.
 4 LAS      LAX            5949        380.
 5 ATL      FLL            5909        935.
 6 DEN      LAS            5654       1010.
 7 ATL      MCO            5648        650.
 8 HNL      LAX            5610       4113.
 9 LAX      ORD            5385       2806.
10 DEN      PHX            5222        969.
# … with 4,862 more rows
…
    return(arrange(pairs, -Passengers))
}

Adding arguments

busiest_routes(data, Origin, Dest)

# A tibble: 4,872 × 4
# Groups:   airport1 [339]
   airport1 airport2 Passengers distance_km
   <chr>    <chr>         <dbl>       <dbl>
 1 JFK      LAX            6764       3982.
 2 HNL      OGG            6163        161.
 3 LGA      ORD            6125       1179.
 4 LAS      LAX            5949        380.
 5 ATL      FLL            5909        935.
 6 DEN      LAS            5654       1010.
 7 ATL      MCO            5648        650.
 8 HNL      LAX            5610       4113.
 9 LAX      ORD            5385       2806.
10 DEN      PHX            5222        969.
# … with 4,862 more rows

Using our function for cities

busiest_routes(data, OriginCity, DestCity)

# A tibble: 3,766 × 4
# Groups:   airport1 [301]
   airport1                              airport2                Passe…¹ dista…²
   <chr>                                 <chr>                     <dbl>   <dbl>
 1 Los Angeles, CA (Metropolitan Area)   San Francisco, CA (Met…   21592    582.
 2 Miami, FL (Metropolitan Area)         New York City, NY (Met…   20675   1720.
 3 Las Vegas, NV                         Los Angeles, CA (Metro…   13559    380.
 4 Los Angeles, CA (Metropolitan Area)   New York City, NY (Met…   13168   3982.
 5 Chicago, IL                           New York City, NY (Met…   12167   1187.
 6 New York City, NY (Metropolitan Area) Orlando, FL               11598   1519.
 7 Los Angeles, CA (Metropolitan Area)   Phoenix, AZ               11188    523.
 8 Atlanta, GA (Metropolitan Area)       New York City, NY (Met…   10922   1200.
 9 Dallas/Fort Worth, TX                 Los Angeles, CA (Metro…   10340   1939.
10 Denver, CO                            Los Angeles, CA (Metro…    9950   1318.
# … with 3,756 more rows, and abbreviated variable names ¹​Passengers,
#   ²​distance_km
…
  res = filter(mkt_shares, total_passengers > 1000) %>% arrange(-market_share)
  return(res)
}

Result

market_shares(data, OperatingCarrierName, OriginCity)

# A tibble: 1,666 × 5
   OperatingCarrierName   OriginCity                     Passe…¹ marke…² total…³
   <chr>                  <chr>                            <dbl>   <dbl>   <dbl>
 1 Allegiant Air          Sanford, FL                       3782   1        3782
 2 Frontier Airlines Inc. Trenton, NJ                       1104   0.996    1108
 3 Allegiant Air          Punta Gorda, FL                   2485   0.991    2507
 4 Delta Air Lines Inc.   Atlanta, GA (Metropolitan Are…   71110   0.730   97452
 5 American Airlines Inc. Charlotte, NC                    33962   0.670   50678
 6 Southwest Airlines Co. St. Louis, MO                    11412   0.648   17600
 7 Alaska Airlines Inc.   Anchorage, AK                     3447   0.626    5510
 8 Southwest Airlines Co. Harlingen/San Benito, TX           701   0.618    1135
 9 Hawaiian Airlines Inc. Hilo, HI                           723   0.601    1202
10 Delta Air Lines Inc.   Detroit, MI                      18211   0.579   31462
# … with 1,656 more rows, and abbreviated variable names ¹​Passengers,
#   ²​market_share, ³​total_passengers

market_shares(data, TicketingCarrierName, OriginCity)

# A tibble: 1,076 × 5
   TicketingCarrierName   OriginCity                     Passe…¹ marke…² total…³
   <chr>                  <chr>                            <dbl>   <dbl>   <dbl>
 1 Allegiant Air          Sanford, FL                       3782   1        3782
 2 Frontier Airlines Inc. Trenton, NJ                       1104   0.996    1108
 3 Allegiant Air          Punta Gorda, FL                   2485   0.991    2507
 4 American Airlines Inc. Charlotte, NC                    45934   0.906   50678
 5 Delta Air Lines Inc.   Atlanta, GA (Metropolitan Are…   75458   0.774   97452
 6 Delta Air Lines Inc.   Detroit, MI                      23708   0.754   31462
 7 Alaska Airlines Inc.   Fairbanks, AK                      887   0.752    1179
 8 Delta Air Lines Inc.   Minneapolis/St. Paul, MN         26397   0.737   35833
 9 Delta Air Lines Inc.   Salt Lake City, UT               20871   0.724   28838
10 American Airlines Inc. Wilmington, NC                     974   0.716    1361
# … with 1,066 more rows, and abbreviated variable names ¹​Passengers,
#   ²​market_share, ³​total_passengers

market_shares(data, TicketingCarrierName, Origin)

# A tibble: 1,199 × 5
   TicketingCarrierName   Origin Passengers market_share total_passengers
   <chr>                  <chr>       <dbl>        <dbl>            <dbl>
 1 Allegiant Air          SFB          3782        1                 3782
 2 Frontier Airlines Inc. TTN          1104        0.996             1108
 3 Allegiant Air          AZA          2014        0.994             2026
 4 Allegiant Air          PIE          3227        0.991             3255
 5 Allegiant Air          PGD          2485        0.991             2507
 6 Southwest Airlines Co. DAL         19203        0.960            19998
 7 Southwest Airlines Co. HOU         14097        0.939            15010
 8 Southwest Airlines Co. MDW         22579        0.931            24250
 9 American Airlines Inc. CLT         45934        0.906            50678
10 American Airlines Inc. DFW         61340        0.840            73022
# … with 1,189 more rows
…
